[{"id":1,"marca":"Oldsmobile","modelo":"Bravada","motor":"YV1902AH4E1529647","desplazamiento":1777,"cilindros":4,"imageURL":"/resources/carImages/creta.png"},
{"id":2,"marca":"Pontiac","modelo":"Grand Am","motor":"WAUBFAFL6BA143432","desplazamiento":1709,"cilindros":5,"imageURL":"/resources/carImages/grand-santa-fe.png"},
{"id":3,"marca":"Nissan","modelo":"Xterra","motor":"2G4GT5GR6C9890601","desplazamiento":1595,"cilindros":5,"imageURL":"/resources/carImages/h-100.png"},
{"id":4,"marca":"Ford","modelo":"Crown Victoria","motor":"SCFEBBCF3CG763588","desplazamiento":1677,"cilindros":6,"imageURL":"/resources/carImages/h1.png"},
{"id":5,"marca":"Jeep","modelo":"Wrangler","motor":"WBSKG9C55BE975978","desplazamiento":2036,"cilindros":5,"imageURL":"/resources/carImages/ioniq.png"},
{"id":6,"marca":"Mercury","modelo":"Mariner","motor":"YV1672MK1B2031420","desplazamiento":2950,"cilindros":6,"imageURL":"/resources/carImages/kona.png"},
{"id":7,"marca":"Chevrolet","modelo":"Astro","motor":"5J6TF2H50FL208002","desplazamiento":2924,"cilindros":5,"imageURL":"/resources/carImages/nexo.png"},
{"id":8,"marca":"Spyker","modelo":"C8","motor":"WBALM7C5XCE953952","desplazamiento":2491,"cilindros":4,"imageURL":"/resources/carImages/santa-fe.png"},
{"id":9,"marca":"Dodge","modelo":"Monaco","motor":"WAUCFAFR8EA239477","desplazamiento":2006,"cilindros":4,"imageURL":"/resources/carImages/tucson.png"},
{"id":10,"marca":"Infiniti","modelo":"QX","motor":"1G6KD57Y77U564742","desplazamiento":2221,"cilindros":5,"imageURL":"/resources/carImages/veloster.png"},
{"id":11,"marca":"Mercedes-Benz","modelo":"S-Class","motor":"2C4RDGCG3FR390278","desplazamiento":2064,"cilindros":4,"imageURL":"/resources/carImages/veloster-js.png"},
{"id":12,"marca":"Oldsmobile","modelo":"Bravada","motor":"WAUUL78E55A655139","desplazamiento":2826,"cilindros":4,"imageURL":"/resources/carImages/venue.png"},
{"id":13,"marca":"Audi","modelo":"S6","motor":"WBAGH03401D134777","desplazamiento":2802,"cilindros":6,"imageURL":"/resources/carImages/s_Elantra.png"},
{"id":14,"marca":"Mercury","modelo":"Sable","motor":"WAUPL58E45A876619","desplazamiento":2505,"cilindros":5,"imageURL":"/resources/carImages/s_I30.png"},
{"id":15,"marca":"Toyota","modelo":"Sequoia","motor":"4T1BK1EB7EU294253","desplazamiento":1962,"cilindros":5,"imageURL":"/resources/carImages/s_I30Fast.png"},
{"id":16,"marca":"Ford","modelo":"Bronco","motor":"WA1LMBFE1DD708587","desplazamiento":1766,"cilindros":4,"imageURL":"/resources/carImages/s_I40.png"},
{"id":17,"marca":"Dodge","modelo":"Intrepid","motor":"WDCGG0EBXFG544696","desplazamiento":1606,"cilindros":4,"imageURL":"/resources/carImages/s_I305dr.png"},
{"id":18,"marca":"Subaru","modelo":"Outback","motor":"1FMJU2A51AE166913","desplazamiento":1600,"cilindros":6,"imageURL":"/resources/carImages/s_NewElantra.png"},
{"id":19,"marca":"Ford","modelo":"Mustang","motor":"2G4GP5EC0B9222178","desplazamiento":2919,"cilindros":4,"imageURL":"/resources/carImages/s_Elantra.png"},
{"id":20,"marca":"GMC","modelo":"Savana 1500","motor":"3VWKX7AJ2BM670800","desplazamiento":2337,"cilindros":4,"imageURL":"/resources/carImages/s_I30.png"}]